<mxfile host="www.draw.io" modified="2023-05-31T12:14:57.339Z" agent="Mozilla/5.0 (Macintosh; Intel Mac OS X 10_15_7) AppleWebKit/537.36 (KHTML, like Gecko) Chrome/113.0.0.0 Safari/537.36" etag="qYsar6mOViHg6-alVa0Z" version="21.3.6" type="device">
  <diagram name="Page-1" id="32p03ZEvUTW6t6PZRJdr">
    <mxGraphModel dx="474" dy="803" grid="1" gridSize="10" guides="1" tooltips="1" connect="1" arrows="1" fold="1" page="1" pageScale="1" pageWidth="827" pageHeight="1169" math="0" shadow="0">
      <root>
        <mxCell id="0" />
        <mxCell id="1" parent="0" />
        <mxCell id="hdsdT2_S2YMjApExQC-h-42" value="vavrarob-02" style="rounded=0;whiteSpace=wrap;html=1;verticalAlign=top;align=center;" vertex="1" parent="1">
          <mxGeometry x="250" y="120" width="180" height="530" as="geometry" />
        </mxCell>
        <mxCell id="hdsdT2_S2YMjApExQC-h-38" value="vavrarob-01" style="rounded=0;whiteSpace=wrap;html=1;verticalAlign=top;align=center;" vertex="1" parent="1">
          <mxGeometry x="50" y="120" width="180" height="530" as="geometry" />
        </mxCell>
        <mxCell id="hdsdT2_S2YMjApExQC-h-1" value="demo1&lt;br&gt;10.0.0.175" style="rounded=0;whiteSpace=wrap;html=1;" vertex="1" parent="1">
          <mxGeometry x="70" y="150" width="130" height="60" as="geometry" />
        </mxCell>
        <mxCell id="hdsdT2_S2YMjApExQC-h-3" value="Linux Bridge&lt;br&gt;fa:16:3e:2d:a7:dd" style="rounded=0;whiteSpace=wrap;html=1;" vertex="1" parent="1">
          <mxGeometry x="70" y="280" width="130" height="60" as="geometry" />
        </mxCell>
        <mxCell id="hdsdT2_S2YMjApExQC-h-18" value="" style="edgeStyle=orthogonalEdgeStyle;rounded=0;orthogonalLoop=1;jettySize=auto;html=1;" edge="1" parent="1" source="hdsdT2_S2YMjApExQC-h-5" target="hdsdT2_S2YMjApExQC-h-6">
          <mxGeometry relative="1" as="geometry" />
        </mxCell>
        <mxCell id="hdsdT2_S2YMjApExQC-h-5" value="OVS Integration Bridge&lt;br&gt;addr:ca:d3:38:66:44:44" style="rounded=0;whiteSpace=wrap;html=1;" vertex="1" parent="1">
          <mxGeometry x="70" y="420" width="130" height="60" as="geometry" />
        </mxCell>
        <mxCell id="hdsdT2_S2YMjApExQC-h-6" value="OVS Tunnel Bridge&lt;br&gt;addr:92:0f:35:92:9c:47" style="rounded=0;whiteSpace=wrap;html=1;" vertex="1" parent="1">
          <mxGeometry x="70" y="560" width="130" height="60" as="geometry" />
        </mxCell>
        <mxCell id="hdsdT2_S2YMjApExQC-h-7" value="Physical Network Infrastructure" style="rounded=0;whiteSpace=wrap;html=1;" vertex="1" parent="1">
          <mxGeometry x="171" y="680" width="130" height="60" as="geometry" />
        </mxCell>
        <mxCell id="hdsdT2_S2YMjApExQC-h-8" value="Internet" style="rounded=0;whiteSpace=wrap;html=1;" vertex="1" parent="1">
          <mxGeometry x="171" y="780" width="130" height="60" as="geometry" />
        </mxCell>
        <mxCell id="hdsdT2_S2YMjApExQC-h-9" value="" style="endArrow=none;html=1;rounded=0;entryX=0.5;entryY=1;entryDx=0;entryDy=0;exitX=0.5;exitY=0;exitDx=0;exitDy=0;" edge="1" parent="1" source="hdsdT2_S2YMjApExQC-h-3" target="hdsdT2_S2YMjApExQC-h-1">
          <mxGeometry width="50" height="50" relative="1" as="geometry">
            <mxPoint x="220" y="480" as="sourcePoint" />
            <mxPoint x="270" y="430" as="targetPoint" />
          </mxGeometry>
        </mxCell>
        <mxCell id="hdsdT2_S2YMjApExQC-h-12" value="eth0" style="edgeLabel;html=1;align=center;verticalAlign=middle;resizable=0;points=[];" vertex="1" connectable="0" parent="hdsdT2_S2YMjApExQC-h-9">
          <mxGeometry x="0.5143" y="-1" relative="1" as="geometry">
            <mxPoint x="-2" y="-7" as="offset" />
          </mxGeometry>
        </mxCell>
        <mxCell id="hdsdT2_S2YMjApExQC-h-13" value="tape2eb15b9-52" style="edgeLabel;html=1;align=center;verticalAlign=middle;resizable=0;points=[];" vertex="1" connectable="0" parent="hdsdT2_S2YMjApExQC-h-9">
          <mxGeometry x="-0.4571" y="-2" relative="1" as="geometry">
            <mxPoint y="9" as="offset" />
          </mxGeometry>
        </mxCell>
        <mxCell id="hdsdT2_S2YMjApExQC-h-10" value="" style="endArrow=none;html=1;rounded=0;entryX=0.5;entryY=1;entryDx=0;entryDy=0;" edge="1" parent="1" source="hdsdT2_S2YMjApExQC-h-5" target="hdsdT2_S2YMjApExQC-h-3">
          <mxGeometry width="50" height="50" relative="1" as="geometry">
            <mxPoint x="220" y="480" as="sourcePoint" />
            <mxPoint x="270" y="430" as="targetPoint" />
          </mxGeometry>
        </mxCell>
        <mxCell id="hdsdT2_S2YMjApExQC-h-14" value="qvoe2eb15b9-52" style="edgeLabel;html=1;align=center;verticalAlign=middle;resizable=0;points=[];" vertex="1" connectable="0" parent="hdsdT2_S2YMjApExQC-h-10">
          <mxGeometry x="-0.65" y="-1" relative="1" as="geometry">
            <mxPoint y="1" as="offset" />
          </mxGeometry>
        </mxCell>
        <mxCell id="hdsdT2_S2YMjApExQC-h-15" value="qbre2eb15b9-52" style="edgeLabel;html=1;align=center;verticalAlign=middle;resizable=0;points=[];" vertex="1" connectable="0" parent="hdsdT2_S2YMjApExQC-h-10">
          <mxGeometry x="0.65" relative="1" as="geometry">
            <mxPoint y="-3" as="offset" />
          </mxGeometry>
        </mxCell>
        <mxCell id="hdsdT2_S2YMjApExQC-h-11" value="" style="endArrow=none;html=1;rounded=0;entryX=0.5;entryY=1;entryDx=0;entryDy=0;exitX=0.5;exitY=0;exitDx=0;exitDy=0;" edge="1" parent="1" source="hdsdT2_S2YMjApExQC-h-6" target="hdsdT2_S2YMjApExQC-h-5">
          <mxGeometry width="50" height="50" relative="1" as="geometry">
            <mxPoint x="220" y="520" as="sourcePoint" />
            <mxPoint x="270" y="470" as="targetPoint" />
          </mxGeometry>
        </mxCell>
        <mxCell id="hdsdT2_S2YMjApExQC-h-16" value="patch-tun&lt;br&gt;addr:8a:8f:4f:c9:16:c9" style="edgeLabel;html=1;align=center;verticalAlign=middle;resizable=0;points=[];" vertex="1" connectable="0" parent="hdsdT2_S2YMjApExQC-h-11">
          <mxGeometry x="0.35" y="-1" relative="1" as="geometry">
            <mxPoint x="-1" y="-12" as="offset" />
          </mxGeometry>
        </mxCell>
        <mxCell id="hdsdT2_S2YMjApExQC-h-17" value="patch-int&lt;br&gt;addr:e6:48:9f:c2:c7:39" style="edgeLabel;html=1;align=center;verticalAlign=middle;resizable=0;points=[];" vertex="1" connectable="0" parent="hdsdT2_S2YMjApExQC-h-11">
          <mxGeometry x="-0.625" y="1" relative="1" as="geometry">
            <mxPoint x="-1" y="-3" as="offset" />
          </mxGeometry>
        </mxCell>
        <mxCell id="hdsdT2_S2YMjApExQC-h-19" value="" style="endArrow=none;html=1;rounded=0;entryX=0.5;entryY=1;entryDx=0;entryDy=0;exitX=0.5;exitY=0;exitDx=0;exitDy=0;" edge="1" parent="1" source="hdsdT2_S2YMjApExQC-h-7" target="hdsdT2_S2YMjApExQC-h-6">
          <mxGeometry width="50" height="50" relative="1" as="geometry">
            <mxPoint x="220" y="490" as="sourcePoint" />
            <mxPoint x="270" y="440" as="targetPoint" />
          </mxGeometry>
        </mxCell>
        <mxCell id="hdsdT2_S2YMjApExQC-h-20" value="vxlan-0a26049d" style="edgeLabel;html=1;align=center;verticalAlign=middle;resizable=0;points=[];" vertex="1" connectable="0" parent="hdsdT2_S2YMjApExQC-h-19">
          <mxGeometry x="0.7537" y="-1" relative="1" as="geometry">
            <mxPoint as="offset" />
          </mxGeometry>
        </mxCell>
        <mxCell id="hdsdT2_S2YMjApExQC-h-21" value="demo2&lt;br&gt;10.0.0.8" style="rounded=0;whiteSpace=wrap;html=1;" vertex="1" parent="1">
          <mxGeometry x="280" y="150" width="130" height="60" as="geometry" />
        </mxCell>
        <mxCell id="hdsdT2_S2YMjApExQC-h-22" value="Linux Bridge&lt;br&gt;fa:16:3e:c2:9f:db" style="rounded=0;whiteSpace=wrap;html=1;" vertex="1" parent="1">
          <mxGeometry x="280" y="280" width="130" height="60" as="geometry" />
        </mxCell>
        <mxCell id="hdsdT2_S2YMjApExQC-h-23" value="" style="edgeStyle=orthogonalEdgeStyle;rounded=0;orthogonalLoop=1;jettySize=auto;html=1;" edge="1" parent="1" source="hdsdT2_S2YMjApExQC-h-24" target="hdsdT2_S2YMjApExQC-h-25">
          <mxGeometry relative="1" as="geometry" />
        </mxCell>
        <mxCell id="hdsdT2_S2YMjApExQC-h-24" value="OVS Integration Bridge&lt;br&gt;addr:96:02:63:47:b0:4c" style="rounded=0;whiteSpace=wrap;html=1;" vertex="1" parent="1">
          <mxGeometry x="280" y="420" width="130" height="60" as="geometry" />
        </mxCell>
        <mxCell id="hdsdT2_S2YMjApExQC-h-25" value="OVS Tunnel Bridge&lt;br&gt;addr:62:dd:eb:4e:bc:4a" style="rounded=0;whiteSpace=wrap;html=1;" vertex="1" parent="1">
          <mxGeometry x="280" y="560" width="130" height="60" as="geometry" />
        </mxCell>
        <mxCell id="hdsdT2_S2YMjApExQC-h-26" value="" style="endArrow=none;html=1;rounded=0;entryX=0.5;entryY=1;entryDx=0;entryDy=0;exitX=0.5;exitY=0;exitDx=0;exitDy=0;" edge="1" parent="1" source="hdsdT2_S2YMjApExQC-h-22" target="hdsdT2_S2YMjApExQC-h-21">
          <mxGeometry width="50" height="50" relative="1" as="geometry">
            <mxPoint x="430" y="480" as="sourcePoint" />
            <mxPoint x="480" y="430" as="targetPoint" />
          </mxGeometry>
        </mxCell>
        <mxCell id="hdsdT2_S2YMjApExQC-h-27" value="eth0" style="edgeLabel;html=1;align=center;verticalAlign=middle;resizable=0;points=[];" vertex="1" connectable="0" parent="hdsdT2_S2YMjApExQC-h-26">
          <mxGeometry x="0.5143" y="-1" relative="1" as="geometry">
            <mxPoint x="-2" y="-7" as="offset" />
          </mxGeometry>
        </mxCell>
        <mxCell id="hdsdT2_S2YMjApExQC-h-28" value="tape74d8aa0-01" style="edgeLabel;html=1;align=center;verticalAlign=middle;resizable=0;points=[];" vertex="1" connectable="0" parent="hdsdT2_S2YMjApExQC-h-26">
          <mxGeometry x="-0.4571" y="-2" relative="1" as="geometry">
            <mxPoint y="9" as="offset" />
          </mxGeometry>
        </mxCell>
        <mxCell id="hdsdT2_S2YMjApExQC-h-29" value="" style="endArrow=none;html=1;rounded=0;entryX=0.5;entryY=1;entryDx=0;entryDy=0;" edge="1" parent="1" source="hdsdT2_S2YMjApExQC-h-24" target="hdsdT2_S2YMjApExQC-h-22">
          <mxGeometry width="50" height="50" relative="1" as="geometry">
            <mxPoint x="430" y="480" as="sourcePoint" />
            <mxPoint x="480" y="430" as="targetPoint" />
          </mxGeometry>
        </mxCell>
        <mxCell id="hdsdT2_S2YMjApExQC-h-30" value="qvoe74d8aa0-01" style="edgeLabel;html=1;align=center;verticalAlign=middle;resizable=0;points=[];" vertex="1" connectable="0" parent="hdsdT2_S2YMjApExQC-h-29">
          <mxGeometry x="-0.65" y="-1" relative="1" as="geometry">
            <mxPoint y="1" as="offset" />
          </mxGeometry>
        </mxCell>
        <mxCell id="hdsdT2_S2YMjApExQC-h-31" value="qbre74d8aa0-01" style="edgeLabel;html=1;align=center;verticalAlign=middle;resizable=0;points=[];" vertex="1" connectable="0" parent="hdsdT2_S2YMjApExQC-h-29">
          <mxGeometry x="0.65" relative="1" as="geometry">
            <mxPoint y="-3" as="offset" />
          </mxGeometry>
        </mxCell>
        <mxCell id="hdsdT2_S2YMjApExQC-h-32" value="" style="endArrow=none;html=1;rounded=0;entryX=0.5;entryY=1;entryDx=0;entryDy=0;exitX=0.5;exitY=0;exitDx=0;exitDy=0;" edge="1" parent="1" source="hdsdT2_S2YMjApExQC-h-25" target="hdsdT2_S2YMjApExQC-h-24">
          <mxGeometry width="50" height="50" relative="1" as="geometry">
            <mxPoint x="430" y="520" as="sourcePoint" />
            <mxPoint x="480" y="470" as="targetPoint" />
          </mxGeometry>
        </mxCell>
        <mxCell id="hdsdT2_S2YMjApExQC-h-33" value="patch-tun&lt;br&gt;addr:5a:fd:73:ee:15:23" style="edgeLabel;html=1;align=center;verticalAlign=middle;resizable=0;points=[];" vertex="1" connectable="0" parent="hdsdT2_S2YMjApExQC-h-32">
          <mxGeometry x="0.35" y="-1" relative="1" as="geometry">
            <mxPoint x="-1" y="-12" as="offset" />
          </mxGeometry>
        </mxCell>
        <mxCell id="hdsdT2_S2YMjApExQC-h-34" value="patch-int&lt;br&gt;addr:8e:f3:f5:71:cc:dd" style="edgeLabel;html=1;align=center;verticalAlign=middle;resizable=0;points=[];" vertex="1" connectable="0" parent="hdsdT2_S2YMjApExQC-h-32">
          <mxGeometry x="-0.625" y="1" relative="1" as="geometry">
            <mxPoint x="-1" y="-3" as="offset" />
          </mxGeometry>
        </mxCell>
        <mxCell id="hdsdT2_S2YMjApExQC-h-35" value="" style="endArrow=none;html=1;rounded=0;entryX=0.5;entryY=1;entryDx=0;entryDy=0;exitX=0.5;exitY=0;exitDx=0;exitDy=0;" edge="1" parent="1" target="hdsdT2_S2YMjApExQC-h-25" source="hdsdT2_S2YMjApExQC-h-7">
          <mxGeometry width="50" height="50" relative="1" as="geometry">
            <mxPoint x="435" y="680" as="sourcePoint" />
            <mxPoint x="480" y="440" as="targetPoint" />
          </mxGeometry>
        </mxCell>
        <mxCell id="hdsdT2_S2YMjApExQC-h-36" value="vxlan-0a26049c" style="edgeLabel;html=1;align=center;verticalAlign=middle;resizable=0;points=[];" vertex="1" connectable="0" parent="hdsdT2_S2YMjApExQC-h-35">
          <mxGeometry x="0.7537" y="-1" relative="1" as="geometry">
            <mxPoint as="offset" />
          </mxGeometry>
        </mxCell>
        <mxCell id="hdsdT2_S2YMjApExQC-h-37" value="" style="endArrow=none;html=1;rounded=0;entryX=0.5;entryY=0;entryDx=0;entryDy=0;exitX=0.5;exitY=1;exitDx=0;exitDy=0;" edge="1" parent="1" source="hdsdT2_S2YMjApExQC-h-7" target="hdsdT2_S2YMjApExQC-h-8">
          <mxGeometry width="50" height="50" relative="1" as="geometry">
            <mxPoint x="231" y="600" as="sourcePoint" />
            <mxPoint x="281" y="550" as="targetPoint" />
          </mxGeometry>
        </mxCell>
      </root>
    </mxGraphModel>
  </diagram>
</mxfile>
